Id,Prediction
0,0.004
1,0.0187
2,0.037
3,0.0178
4,0.048
5,0.0279
6,0.0161
7,0.1336
8,0.0352
9,0.0379
10,0.0245
11,0.3812
12,0.0238
13,0.4995
14,0.0126
15,0.0111
16,0.3769
17,0.0254
18,0.107
19,0.0609
20,0.0663
21,0.1743
22,0.1537
23,0.0514
24,0.0127
25,0.0169
26,0.0771
27,0.059
28,0.0407
29,0.0207
30,0.1345
31,0.0734
32,0.0485
33,0.0542
34,0.0205
35,0.1244
36,0.0274
37,0.1679
38,0.0864
39,0.0039
40,0.009
41,0.0484
42,0.1152
43,0.0748
44,0.251
45,0.1108
46,0.0875
47,0.0338
48,0.0166
49,0.0533
50,0.2089
51,0.019
52,0.0233
53,0.0102
54,0.0239
55,0.1133
56,0.1071
57,0.4027
58,0.0692
59,0.067
60,0.2443
61,0.0111
62,0.11
63,0.0118
64,0.0239
65,0.0915
66,0.0484
67,0.07
68,0.0571
69,0.3982
70,0.0073
71,0.0609
72,0.3629
73,0.0204
74,0.0208
75,0.0391
76,0.1525
77,0.0095
78,0.0786
79,0.0539
80,0.0109
81,0.2389
82,0.0446
83,0.047
84,0.496
85,0.0043
86,0.1457
87,0.0637
88,0.0371
89,0.024
90,0.0384
91,0.0991
92,0.0128
93,0.0966
94,0.0234
95,0.0168
96,0.0269
97,0.0234
98,0.2365
99,0.0601
100,0.0232
101,0.0135
102,0.0059
103,0.5202
104,0.055
105,0.0099
106,0.1357
107,0.2238
108,0.023
109,0.0513
110,0.1923
111,0.0426
112,0.0101
113,0.053
114,0.0088
115,0.3692
116,0.0121
117,0.0235
118,0.0079
119,0.0595
120,0.0288
121,0.125
122,0.0142
123,0.0162
124,0.2046
125,0.4528
126,0.0764
127,0.0272
128,0.3758
129,0.1333
130,0.0359
131,0.0542
132,0.0614
133,0.1054
134,0.2233
135,0.0789
136,0.2418
137,0.0423
138,0.047
139,0.0891
140,0.1081
141,0.0392
142,0.0375
143,0.0615
144,0.1676
145,0.0039
146,0.0491
147,0.0496
148,0.2361
149,0.0514
150,0.0233
151,0.1403
152,0.1135
153,0.0107
154,0.0235
155,0.0161
156,0.0907
157,0.0136
158,0.2703
159,0.058
160,0.0094
161,0.1552
162,0.0539
163,0.0344
164,0.2154
165,0.1266
166,0.2535
167,0.1493
168,0.0374
169,0.0058
170,0.0776
171,0.3481
172,0.0573
173,0.1143
174,0.1698
175,0.0065
176,0.2621
177,0.0139
178,0.0354
179,0.0363
180,0.0368
181,0.078
182,0.0233
183,0.0096
184,0.0367
185,0.0534
186,0.0757
187,0.0123
188,0.0696
189,0.3193
190,0.0367
191,0.0728
192,0.0571
193,0.0402
194,0.5009
195,0.1359
196,0.2049
197,0.0176
198,0.0402
199,0.0129
200,0.0731
201,0.1761
202,0.3337
203,0.0185
204,0.1325
205,0.0401
206,0.0369
207,0.0115
208,0.0595
209,0.1536
210,0.0238
211,0.0133
212,0.0953
213,0.1175
214,0.0543
215,0.0096
216,0.0547
217,0.0346
218,0.077
219,0.0144
220,0.05
221,0.0174
222,0.1143
223,0.1783
224,0.0121
225,0.0074
226,0.1624
227,0.1685
228,0.0533
229,0.023
230,0.0572
231,0.0992
232,0.0696
233,0.099
234,0.0213
235,0.0561
236,0.0109
237,0.0059
238,0.0128
239,0.1535
240,0.0148
241,0.0439
242,0.0278
243,0.3926
244,0.0931
245,0.0306
246,0.0146
247,0.0184
248,0.0334
249,0.212
250,0.0784
251,0.0522
252,0.0125
253,0.2117
254,0.0096
255,0.0569
256,0.0465
257,0.0568
258,0.016
259,0.0218
260,0.0825
261,0.0146
262,0.0336
263,0.126
264,0.0222
265,0.0812
266,0.0064
267,0.13
268,0.066
269,0.1015
270,0.1363
271,0.0041
272,0.2257
273,0.0592
274,0.0089
275,0.1794
276,0.0154
277,0.0206
278,0.068
279,0.0602
280,0.0731
281,0.0507
282,0.0678
283,0.026
284,0.016
285,0.1427
286,0.1502
287,0.0296
288,0.0273
289,0.0481
290,0.0183
291,0.0798
292,0.0211
293,0.0373
294,0.0299
295,0.0225
296,0.0174
297,0.1123
298,0.039
299,0.0195
300,0.0891
301,0.1087
302,0.1021
303,0.0285
304,0.0281
305,0.0221
306,0.1096
307,0.1543
308,0.034
309,0.0318
310,0.0886
311,0.4778
312,0.2106
313,0.0448
314,0.008
315,0.0146
316,0.0371
317,0.0291
318,0.3274
319,0.1039
320,0.1528
321,0.1225
322,0.0116
323,0.147
324,0.0192
325,0.5092
326,0.0951
327,0.0467
328,0.0614
329,0.0547
330,0.1059
331,0.0523
332,0.0505
333,0.0112
334,0.0591
335,0.0754
336,0.0088
337,0.0713
338,0.0341
339,0.1421
340,0.0818
341,0.0652
342,0.0571
343,0.0412
344,0.0211
345,0.0559
346,0.0258
347,0.061
348,0.017
349,0.0474
350,0.044
351,0.1057
352,0.0937
353,0.0519
354,0.0541
355,0.1305
356,0.0385
357,0.0503
358,0.0802
359,0.0253
360,0.0798
361,0.071
362,0.1568
363,0.0376
364,0.0387
365,0.122
366,0.0542
367,0.0231
368,0.0894
369,0.0298
370,0.0141
371,0.0641
372,0.0342
373,0.0942
374,0.0214
375,0.3122
376,0.0359
377,0.0523
378,0.1138
379,0.2662
380,0.0584
381,0.0472
382,0.0216
383,0.0281
384,0.126
385,0.1986
386,0.0236
387,0.0427
388,0.0123
389,0.054
390,0.0853
391,0.0854
392,0.0583
393,0.1728
394,0.0178
395,0.0147
396,0.0104
397,0.0048
398,0.1517
399,0.0218
400,0.0646
401,0.0077
402,0.0633
403,0.6165
404,0.1093
405,0.1048
406,0.0202
407,0.0325
408,0.0149
409,0.0665
410,0.1202
411,0.0362
412,0.0365
413,0.3358
414,0.0256
415,0.0711
416,0.4322
417,0.2717
418,0.0336
419,0.0511
420,0.0201
421,0.0259
422,0.0297
423,0.0241
424,0.0127
425,0.0375
426,0.0119
427,0.0238
428,0.0223
429,0.0341
430,0.0058
431,0.0347
432,0.0531
433,0.0162
434,0.2104
435,0.1447
436,0.0078
437,0.108
438,0.0447
439,0.1981
440,0.1076
441,0.1079
442,0.0265
443,0.0359
444,0.389
445,0.0409
446,0.5074
447,0.077
448,0.0169
449,0.022
450,0.0296
451,0.0547
452,0.1547
453,0.0424
454,0.047
455,0.0871
456,0.1141
457,0.027
458,0.0218
459,0.0084
460,0.0864
461,0.3996
462,0.4775
463,0.1577
464,0.021
465,0.025
466,0.0224
467,0.0519
468,0.0228
469,0.0231
470,0.0273
471,0.0466
472,0.1213
473,0.0305
474,0.0728
475,0.0442
476,0.0192
477,0.0195
478,0.2517
479,0.0971
480,0.3867
481,0.0552
482,0.0589
483,0.014
484,0.0763
485,0.0639
486,0.0342
487,0.2976
488,0.0234
489,0.0158
490,0.0334
491,0.1054
492,0.1826
493,0.0071
494,0.3966
495,0.2213
496,0.0374
497,0.0464
498,0.0328
499,0.0084
500,0.0358
501,0.0628
502,0.0183
503,0.0549
504,0.1034
505,0.0161
506,0.1447
507,0.0156
508,0.0575
509,0.024
510,0.0211
511,0.0391
512,0.0566
513,0.0124
514,0.032
515,0.0079
516,0.0272
517,0.0414
518,0.0122
519,0.4148
520,0.0529
521,0.1049
522,0.2435
523,0.1236
524,0.0306
525,0.0618
526,0.1289
527,0.0189
528,0.4368
529,0.0482
530,0.0149
531,0.0966
532,0.1502
533,0.007
534,0.0438
535,0.015
536,0.0704
537,0.0587
538,0.0268
539,0.0717
540,0.0701
541,0.212
542,0.1932
543,0.2712
544,0.0417
545,0.0331
546,0.1374
547,0.0255
548,0.0019
549,0.0328
550,0.1315
551,0.0068
552,0.1193
553,0.024
554,0.3905
555,0.0167
556,0.0099
557,0.0138
558,0.0746
559,0.0184
560,0.011
561,0.0207
562,0.0073
563,0.0197
564,0.2064
565,0.0178
566,0.1646
567,0.1329
568,0.0828
569,0.2984
570,0.0187
571,0.1061
572,0.2496
573,0.0339
574,0.1413
575,0.0653
576,0.01
577,0.1087
578,0.1197
579,0.0367
580,0.0788
581,0.2532
582,0.0649
583,0.0082
584,0.0479
585,0.0326
586,0.0326
587,0.0828
588,0.0241
589,0.0217
590,0.0754
591,0.2811
592,0.0279
593,0.015
594,0.0436
595,0.022
596,0.0273
597,0.1719
598,0.0117
599,0.0388
600,0.226
601,0.079
602,0.0897
603,0.0158
604,0.0324
605,0.0574
606,0.0105
607,0.0355
608,0.0612
609,0.0698
610,0.0353
611,0.0506
612,0.0452
613,0.0176
614,0.0194
615,0.0888
616,0.0759
617,0.0213
618,0.1906
619,0.0095
620,0.1152
621,0.013
622,0.1831
623,0.0088
624,0.0872
625,0.3135
626,0.0848
627,0.0277
628,0.0078
629,0.1673
630,0.1187
631,0.0125
632,0.0487
633,0.3623
634,0.1048
635,0.2091
636,0.056
637,0.1433
638,0.0672
639,0.0553
640,0.1515
641,0.1051
642,0.1571
643,0.0779
644,0.0285
645,0.0518
646,0.087
647,0.0268
648,0.1227
649,0.0178
650,0.1582
651,0.0502
652,0.0148
653,0.0494
654,0.0463
655,0.0324
656,0.167
657,0.0826
658,0.028
659,0.0234
660,0.0865
661,0.1014
662,0.175
663,0.0904
664,0.0153
665,0.0445
666,0.2752
667,0.0413
668,0.0983
669,0.0124
670,0.0762
671,0.0746
672,0.1944
673,0.0838
674,0.0709
675,0.0201
676,0.0175
677,0.1389
678,0.0323
679,0.0973
680,0.202
681,0.0086
682,0.1594
683,0.03
684,0.0323
685,0.0232
686,0.0551
687,0.0768
688,0.1206
689,0.0272
690,0.1529
691,0.0152
692,0.0329
693,0.0205
694,0.0696
695,0.0191
696,0.0099
697,0.0399
698,0.1671
699,0.0682
700,0.0702
701,0.0188
702,0.0453
703,0.0166
704,0.0337
705,0.0063
706,0.0145
707,0.018
708,0.0399
709,0.1405
710,0.0096
711,0.0371
712,0.0333
713,0.1653
714,0.1511
715,0.033
716,0.0103
717,0.0228
718,0.0484
719,0.0087
720,0.0293
721,0.0645
722,0.0619
723,0.5172
724,0.4999
725,0.0468
726,0.1006
727,0.0609
728,0.3145
729,0.0173
730,0.0854
731,0.0456
732,0.1558
733,0.393
734,0.0152
735,0.2068
736,0.4904
737,0.0545
738,0.0081
739,0.012
740,0.0123
741,0.1636
742,0.0349
743,0.3592
744,0.0203
745,0.1529
746,0.1213
747,0.0615
748,0.0435
749,0.1225
750,0.0779
751,0.0786
752,0.0566
753,0.0314
754,0.1229
755,0.0273
756,0.0151
757,0.1088
758,0.0072
759,0.0285
760,0.0209
761,0.0304
762,0.0107
763,0.2049
764,0.0361
765,0.0723
766,0.0238
767,0.117
768,0.2156
769,0.0392
770,0.0576
771,0.0457
772,0.0313
773,0.0247
774,0.0262
775,0.0994
776,0.0788
777,0.0611
778,0.0577
779,0.0864
780,0.0218
781,0.0171
782,0.0071
783,0.0634
784,0.0663
785,0.0458
786,0.0305
787,0.0644
788,0.2551
789,0.0209
790,0.0058
791,0.0777
792,0.0151
793,0.0291
794,0.1556
795,0.1131
796,0.0834
797,0.0679
798,0.0206
799,0.0978
800,0.0097
801,0.0316
802,0.0382
803,0.0484
804,0.1809
805,0.1312
806,0.0184
807,0.1101
808,0.0492
809,0.0915
810,0.1322
811,0.0113
812,0.0477
813,0.0566
814,0.0487
815,0.1201
816,0.1032
817,0.0049
818,0.294
819,0.1064
820,0.1679
821,0.04
822,0.0462
823,0.0247
824,0.023
825,0.2387
826,0.1808
827,0.1469
828,0.0433
829,0.0218
830,0.0256
831,0.0231
832,0.0846
833,0.0124
834,0.1371
835,0.0795
836,0.0396
837,0.1407
838,0.0146
839,0.0475
840,0.0183
841,0.0254
842,0.025
843,0.0131
844,0.0113
845,0.0102
846,0.0228
847,0.0485
848,0.0349
849,0.0558
850,0.1988
851,0.3116
852,0.0102
853,0.131
854,0.1524
855,0.036
856,0.0324
857,0.0047
858,0.0631
859,0.009
860,0.1693
861,0.0195
862,0.0432
863,0.0536
864,0.1451
865,0.3153
866,0.0068
867,0.0118
868,0.0235
869,0.0621
870,0.0364
871,0.4962
872,0.4791
873,0.0498
874,0.2095
875,0.0817
876,0.0078
877,0.0388
878,0.3391
879,0.1264
880,0.0049
881,0.0393
882,0.3175
883,0.1868
884,0.0427
885,0.0825
886,0.0206
887,0.0828
888,0.0265
889,0.076
890,0.0847
891,0.0448
892,0.2247
893,0.0928
894,0.2539
895,0.1785
896,0.022
897,0.0773
898,0.1114
899,0.0123
900,0.1215
901,0.0722
902,0.0816
903,0.091
904,0.3536
905,0.0143
906,0.0263
907,0.0162
908,0.0211
909,0.0378
910,0.0224
911,0.0177
912,0.0348
913,0.1214
914,0.0327
915,0.2775
916,0.0759
917,0.0333
918,0.2191
919,0.0347
920,0.0938
921,0.0359
922,0.3599
923,0.1519
924,0.0648
925,0.0117
926,0.1487
927,0.069
928,0.0488
929,0.127
930,0.107
931,0.0149
932,0.0303
933,0.0886
934,0.1366
935,0.0889
936,0.0241
937,0.0858
938,0.1681
939,0.141
940,0.1047
941,0.0245
942,0.0554
943,0.1424
944,0.0085
945,0.0086
946,0.08
947,0.02
948,0.0138
949,0.0624
950,0.0399
951,0.0788
952,0.1136
953,0.0421
954,0.0564
955,0.0096
956,0.154
957,0.107
958,0.0488
959,0.0307
960,0.1438
961,0.0776
962,0.3773
963,0.0704
964,0.0487
965,0.2669
966,0.1222
967,0.1104
968,0.0295
969,0.0096
970,0.0087
971,0.1587
972,0.5203
973,0.0484
974,0.0156
975,0.0762
976,0.2901
977,0.052
978,0.0203
979,0.0397
980,0.0341
981,0.0137
982,0.103
983,0.0427
984,0.1311
985,0.0102
986,0.0197
987,0.0227
988,0.0696
989,0.0076
990,0.0954
991,0.2576
992,0.0124
993,0.0595
994,0.0029
995,0.0862
996,0.0167
997,0.2921
998,0.0353
999,0.1364
1000,0.0167
1001,0.0495
1002,0.0129
1003,0.4091
1004,0.024
1005,0.0175
1006,0.036
1007,0.0661
1008,0.0683
1009,0.0344
1010,0.0467
1011,0.1845
1012,0.0527
1013,0.0199
1014,0.0581
1015,0.0599
1016,0.0475
1017,0.1297
1018,0.0934
1019,0.1562
1020,0.0201
1021,0.2697
1022,0.0161
1023,0.2436
1024,0.0537
1025,0.0292
1026,0.0509
1027,0.0068
1028,0.0277
1029,0.1248
1030,0.0105
1031,0.1658
1032,0.0292
1033,0.0098
1034,0.3487
1035,0.5662
1036,0.0321
1037,0.0196
1038,0.0222
1039,0.1005
1040,0.0869
1041,0.0366
1042,0.0417
1043,0.0232
1044,0.1191
1045,0.1059
1046,0.1029
1047,0.0143
1048,0.0896
1049,0.2598
1050,0.0122
1051,0.4466
1052,0.2656
1053,0.0758
1054,0.0778
1055,0.0348
1056,0.0187
1057,0.1367
1058,0.0229
1059,0.0535
1060,0.0528
1061,0.0313
1062,0.0745
1063,0.1872
1064,0.0649
1065,0.0601
1066,0.0618
1067,0.0173
1068,0.1647
1069,0.3637
1070,0.0125
1071,0.0121
1072,0.0491
1073,0.0524
1074,0.0071
1075,0.0848
1076,0.0478
1077,0.5961
1078,0.1581
1079,0.1772
1080,0.2131
1081,0.05
1082,0.0533
1083,0.0284
1084,0.1187
1085,0.0075
1086,0.0248
1087,0.0334
1088,0.3607
1089,0.0366
1090,0.0817
1091,0.2006
1092,0.0822
1093,0.0232
1094,0.3145
1095,0.0143
1096,0.0195
1097,0.0389
1098,0.0618
1099,0.0291
1100,0.4246
1101,0.1307
1102,0.0624
1103,0.0842
1104,0.0091
1105,0.0291
1106,0.1101
1107,0.0159
1108,0.0572
1109,0.0131
1110,0.0349
1111,0.0065
1112,0.1278
1113,0.0246
1114,0.2516
1115,0.0219
1116,0.0078
1117,0.063
1118,0.0418
1119,0.0538
1120,0.0524
1121,0.2185
1122,0.0158
1123,0.1428
1124,0.0386
1125,0.0599
1126,0.0078
1127,0.132
1128,0.0095
1129,0.0154
1130,0.0895
1131,0.1901
1132,0.042
1133,0.0169
1134,0.0114
1135,0.0341
1136,0.0253
1137,0.0155
1138,0.1156
1139,0.0166
1140,0.0076
1141,0.0635
1142,0.0325
1143,0.076
1144,0.0478
1145,0.0287
1146,0.0401
1147,0.1004
1148,0.0388
1149,0.1838
1150,0.1476
1151,0.4716
1152,0.0667
1153,0.0267
1154,0.0473
1155,0.0916
1156,0.0126
1157,0.0752
1158,0.0469
1159,0.0071
1160,0.0761
1161,0.1041
1162,0.3545
1163,0.0275
1164,0.1677
1165,0.3501
1166,0.1077
1167,0.0116
1168,0.0955
1169,0.0289
1170,0.2703
1171,0.0325
1172,0.0077
1173,0.0318
1174,0.3307
1175,0.0349
1176,0.1709
1177,0.0229
1178,0.1067
1179,0.0474
1180,0.1666
1181,0.0597
1182,0.0365
1183,0.0086
1184,0.0745
1185,0.1378
1186,0.2338
1187,0.158
1188,0.0402
1189,0.0487
1190,0.095
1191,0.0242
1192,0.2959
1193,0.0475
1194,0.0418
1195,0.1893
1196,0.3278
1197,0.1618
1198,0.0239
1199,0.0446
1200,0.1671
1201,0.0101
1202,0.0521
1203,0.006
1204,0.2183
1205,0.0613
1206,0.0778
1207,0.0183
1208,0.0573
1209,0.0296
1210,0.021
1211,0.1637
1212,0.057
1213,0.0176
1214,0.0961
1215,0.1214
1216,0.0163
1217,0.0774
1218,0.0195
1219,0.0428
1220,0.007
1221,0.1278
1222,0.0413
1223,0.2328
1224,0.0853
1225,0.07
1226,0.0968
1227,0.0281
1228,0.0304
1229,0.1242
1230,0.1285
1231,0.059
1232,0.0064
1233,0.0514
1234,0.4439
1235,0.0393
1236,0.0581
1237,0.0077
1238,0.0261
1239,0.0425
1240,0.1074
1241,0.0942
1242,0.0245
1243,0.0184
1244,0.0793
1245,0.0273
1246,0.1459
1247,0.0077
1248,0.1928
1249,0.0417
1250,0.1322
1251,0.0053
1252,0.2286
1253,0.2776
1254,0.0691
1255,0.0214
1256,0.2
1257,0.1891
1258,0.0232
1259,0.15
1260,0.0665
1261,0.0402
1262,0.0951
1263,0.0123
1264,0.0094
1265,0.0867
1266,0.1046
1267,0.035
1268,0.0079
1269,0.0148
1270,0.0064
1271,0.0693
1272,0.0896
1273,0.0295
1274,0.0796
1275,0.1755
1276,0.0081
1277,0.0178
1278,0.0239
1279,0.193
1280,0.0306
1281,0.1332
1282,0.0189
1283,0.0202
1284,0.0074
1285,0.0187
1286,0.1238
1287,0.0745
1288,0.0347
1289,0.0087
1290,0.0168
1291,0.0429
1292,0.0139
1293,0.0376
1294,0.0824
1295,0.3531
1296,0.1336
1297,0.1029
1298,0.0427
1299,0.1758
1300,0.0532
1301,0.1374
1302,0.0524
1303,0.1113
1304,0.0455
1305,0.15
1306,0.0914
1307,0.0085
1308,0.0238
1309,0.1221
1310,0.0252
1311,0.0449
1312,0.0549
1313,0.0124
1314,0.1114
1315,0.0347
1316,0.0202
1317,0.0069
1318,0.0337
1319,0.078
1320,0.0446
1321,0.231
1322,0.0513
1323,0.2711
1324,0.0189
1325,0.0554
1326,0.0092
1327,0.4146
1328,0.1107
1329,0.1526
1330,0.0577
1331,0.0219
1332,0.0494
1333,0.0392
1334,0.051
1335,0.2627
1336,0.1783
1337,0.0111
1338,0.0706
1339,0.006
1340,0.4227
1341,0.062
1342,0.2856
1343,0.0416
1344,0.351
1345,0.0208
1346,0.0382
1347,0.0477
1348,0.0153
1349,0.0522
1350,0.0185
1351,0.0101
1352,0.082
1353,0.0874
1354,0.0195
1355,0.1675
1356,0.0534
1357,0.0549
1358,0.0319
1359,0.0495
1360,0.1739
1361,0.0522
1362,0.0152
1363,0.0778
1364,0.0152
1365,0.0719
